





<!DOCTYPE html>
<html lang="en">
  <head>
    <meta charset="utf-8">
  <link rel="dns-prefetch" href="https://github.githubassets.com">
  <link rel="dns-prefetch" href="https://avatars0.githubusercontent.com">
  <link rel="dns-prefetch" href="https://avatars1.githubusercontent.com">
  <link rel="dns-prefetch" href="https://avatars2.githubusercontent.com">
  <link rel="dns-prefetch" href="https://avatars3.githubusercontent.com">
  <link rel="dns-prefetch" href="https://github-cloud.s3.amazonaws.com">
  <link rel="dns-prefetch" href="https://user-images.githubusercontent.com/">



  <link crossorigin="anonymous" media="all" integrity="sha512-dcLOgLGIYz/Y2ShFrU1QIrJkdqKiEQTjJoK2MCHtHxMhGAWpMAXyHjWgNqTdNzTcvNINu08lYn79EStdgLYUSQ==" rel="stylesheet" href="https://github.githubassets.com/assets/frameworks-911c0a12b70ded25a66d3432705a7c0f.css" />
  
    <link crossorigin="anonymous" media="all" integrity="sha512-nPnw/5fvFTpJRvkI3ToiuGyQ/NSy9k2kqaUXf1oYYILEqEjzo4gH9cIvq5SgpGxnxjbsRf66tzYJYhESWeA0xw==" rel="stylesheet" href="https://github.githubassets.com/assets/github-75c588f8b8e8c4f2d62874f59048aa15.css" />
    
    
    
    

  <meta name="viewport" content="width=device-width">
  
  <title>redistricting-atlas-data/CT-current.prj at master · jaskiratsingh98/redistricting-atlas-data</title>
    <meta name="description" content="Data used in The Atlas Of Redistricting. Contribute to jaskiratsingh98/redistricting-atlas-data development by creating an account on GitHub.">
    <link rel="search" type="application/opensearchdescription+xml" href="/opensearch.xml" title="GitHub">
  <link rel="fluid-icon" href="https://github.com/fluidicon.png" title="GitHub">
  <meta property="fb:app_id" content="1401488693436528">

    <meta name="twitter:image:src" content="https://avatars2.githubusercontent.com/u/45077319?s=400&amp;v=4" /><meta name="twitter:site" content="@github" /><meta name="twitter:card" content="summary" /><meta name="twitter:title" content="jaskiratsingh98/redistricting-atlas-data" /><meta name="twitter:description" content="Data used in The Atlas Of Redistricting. Contribute to jaskiratsingh98/redistricting-atlas-data development by creating an account on GitHub." />
    <meta property="og:image" content="https://avatars2.githubusercontent.com/u/45077319?s=400&amp;v=4" /><meta property="og:site_name" content="GitHub" /><meta property="og:type" content="object" /><meta property="og:title" content="jaskiratsingh98/redistricting-atlas-data" /><meta property="og:url" content="https://github.com/jaskiratsingh98/redistricting-atlas-data" /><meta property="og:description" content="Data used in The Atlas Of Redistricting. Contribute to jaskiratsingh98/redistricting-atlas-data development by creating an account on GitHub." />

  <link rel="assets" href="https://github.githubassets.com/">
  <link rel="web-socket" href="wss://live.github.com/_sockets/VjI6MzgwOTU4MzEyOmZhNWZkNzQ1M2YxYzU1NTRlMDljOGY5YTQ0MDUwYjFhODRhMTA4MTA2NWZiY2UyMDgyMTE0ODIyMzhkNWMzYmY=--07456e1adaa732f5c3b9398b8539584e7493139a">
  <meta name="pjax-timeout" content="1000">
  <link rel="sudo-modal" href="/sessions/sudo_modal">
  <meta name="request-id" content="E5FC:61F3:AF1586:14B510E:5CB6AC3A" data-pjax-transient>


  

  <meta name="selected-link" value="repo_source" data-pjax-transient>

      <meta name="google-site-verification" content="KT5gs8h0wvaagLKAVWq8bbeNwnZZK1r1XQysX3xurLU">
    <meta name="google-site-verification" content="ZzhVyEFwb7w3e0-uOTltm8Jsck2F5StVihD0exw2fsA">
    <meta name="google-site-verification" content="GXs5KoUUkNCoaAZn7wPN-t01Pywp9M3sEjnt_3_ZWPc">

  <meta name="octolytics-host" content="collector.githubapp.com" /><meta name="octolytics-app-id" content="github" /><meta name="octolytics-event-url" content="https://collector.githubapp.com/github-external/browser_event" /><meta name="octolytics-dimension-request_id" content="E5FC:61F3:AF1586:14B510E:5CB6AC3A" /><meta name="octolytics-dimension-region_edge" content="iad" /><meta name="octolytics-dimension-region_render" content="iad" /><meta name="octolytics-actor-id" content="45077319" /><meta name="octolytics-actor-login" content="jaskiratsingh98" /><meta name="octolytics-actor-hash" content="7b01a666bdaf7134922862463f4cdc07c6cc2cfeb556fadeb86804033d5197e6" />
<meta name="analytics-location" content="/&lt;user-name&gt;/&lt;repo-name&gt;/blob/show" data-pjax-transient="true" />



    <meta name="google-analytics" content="UA-3769691-2">

  <meta class="js-ga-set" name="userId" content="f34a266be7a142df3389f83f2cd51546">

<meta class="js-ga-set" name="dimension1" content="Logged In">



  

      <meta name="hostname" content="github.com">
    <meta name="user-login" content="jaskiratsingh98">

      <meta name="expected-hostname" content="github.com">
    <meta name="js-proxy-site-detection-payload" content="YjE5NWFjMTkzMmYxMTM2M2YwOWQ5NTg5MGY0YzFkMWI4Y2ZiM2UxMGU2N2I4ODdiNmE3YmIyZTJlNjI1MjE2OHx7InJlbW90ZV9hZGRyZXNzIjoiNjcuODQuMjguMzUiLCJyZXF1ZXN0X2lkIjoiRTVGQzo2MUYzOkFGMTU4NjoxNEI1MTBFOjVDQjZBQzNBIiwidGltZXN0YW1wIjoxNTU1NDc1NTIzLCJob3N0IjoiZ2l0aHViLmNvbSJ9">

    <meta name="enabled-features" content="UNIVERSE_BANNER,MARKETPLACE_INVOICED_BILLING,MARKETPLACE_ENTERPRISE_CONTACTS,MARKETPLACE_SOCIAL_PROOF_CUSTOMERS,MARKETPLACE_TRENDING_SOCIAL_PROOF,MARKETPLACE_RECOMMENDATIONS,NOTIFY_ON_BLOCK,RELATED_ISSUES">

  <meta name="html-safe-nonce" content="31fac59a508cb8ff28757888328a4bd1ef7e8936">

  <meta http-equiv="x-pjax-version" content="a160ddf9f39f8a683b6cb23d4404df2c">
  

      <link href="https://github.com/jaskiratsingh98/redistricting-atlas-data/commits/master.atom" rel="alternate" title="Recent Commits to redistricting-atlas-data:master" type="application/atom+xml">

  <meta name="go-import" content="github.com/jaskiratsingh98/redistricting-atlas-data git https://github.com/jaskiratsingh98/redistricting-atlas-data.git">

  <meta name="octolytics-dimension-user_id" content="45077319" /><meta name="octolytics-dimension-user_login" content="jaskiratsingh98" /><meta name="octolytics-dimension-repository_id" content="181817346" /><meta name="octolytics-dimension-repository_nwo" content="jaskiratsingh98/redistricting-atlas-data" /><meta name="octolytics-dimension-repository_public" content="true" /><meta name="octolytics-dimension-repository_is_fork" content="true" /><meta name="octolytics-dimension-repository_parent_id" content="118779702" /><meta name="octolytics-dimension-repository_parent_nwo" content="fivethirtyeight/redistricting-atlas-data" /><meta name="octolytics-dimension-repository_network_root_id" content="118779702" /><meta name="octolytics-dimension-repository_network_root_nwo" content="fivethirtyeight/redistricting-atlas-data" /><meta name="octolytics-dimension-repository_explore_github_marketplace_ci_cta_shown" content="true" />


    <link rel="canonical" href="https://github.com/jaskiratsingh98/redistricting-atlas-data/blob/master/shp/CT-current.prj" data-pjax-transient>


  <meta name="browser-stats-url" content="https://api.github.com/_private/browser/stats">

  <meta name="browser-errors-url" content="https://api.github.com/_private/browser/errors">

  <link rel="mask-icon" href="https://github.githubassets.com/pinned-octocat.svg" color="#000000">
  <link rel="icon" type="image/x-icon" class="js-site-favicon" href="https://github.githubassets.com/favicon.ico">

<meta name="theme-color" content="#1e2327">


  <meta name="u2f-enabled" content="true">


  <link rel="manifest" href="/manifest.json" crossOrigin="use-credentials">

  </head>

  <body class="logged-in env-production page-responsive min-width-0 page-blob">
    

  <div class="position-relative js-header-wrapper ">
    <a href="#start-of-content" tabindex="1" class="p-3 bg-blue text-white show-on-focus js-skip-to-content">Skip to content</a>
    <div id="js-pjax-loader-bar" class="pjax-loader-bar"><div class="progress"></div></div>

    
    
    


          <header class="Header js-details-container Details flex-wrap flex-lg-nowrap p-responsive" role="banner">

    <div class="Header-item d-none d-lg-flex">
      <a class="Header-link" href="https://github.com/" data-hotkey="g d" aria-label="Homepage" data-ga-click="Header, go to dashboard, icon:logo">
  <svg class="octicon octicon-mark-github v-align-middle" height="32" viewBox="0 0 16 16" version="1.1" width="32" aria-hidden="true"><path fill-rule="evenodd" d="M8 0C3.58 0 0 3.58 0 8c0 3.54 2.29 6.53 5.47 7.59.4.07.55-.17.55-.38 0-.19-.01-.82-.01-1.49-2.01.37-2.53-.49-2.69-.94-.09-.23-.48-.94-.82-1.13-.28-.15-.68-.52-.01-.53.63-.01 1.08.58 1.23.82.72 1.21 1.87.87 2.33.66.07-.52.28-.87.51-1.07-1.78-.2-3.64-.89-3.64-3.95 0-.87.31-1.59.82-2.15-.08-.2-.36-1.02.08-2.12 0 0 .67-.21 2.2.82.64-.18 1.32-.27 2-.27.68 0 1.36.09 2 .27 1.53-1.04 2.2-.82 2.2-.82.44 1.1.16 1.92.08 2.12.51.56.82 1.27.82 2.15 0 3.07-1.87 3.75-3.65 3.95.29.25.54.73.54 1.48 0 1.07-.01 1.93-.01 2.2 0 .21.15.46.55.38A8.013 8.013 0 0 0 16 8c0-4.42-3.58-8-8-8z"/></svg>
</a>

    </div>

    <div class="Header-item d-lg-none">
      <button class="Header-link btn-link mt-1 js-details-target" type="button" aria-label="Toggle navigation" aria-expanded="false">
        <svg height="24" class="octicon octicon-three-bars" viewBox="0 0 12 16" version="1.1" width="18" aria-hidden="true"><path fill-rule="evenodd" d="M11.41 9H.59C0 9 0 8.59 0 8c0-.59 0-1 .59-1H11.4c.59 0 .59.41.59 1 0 .59 0 1-.59 1h.01zm0-4H.59C0 5 0 4.59 0 4c0-.59 0-1 .59-1H11.4c.59 0 .59.41.59 1 0 .59 0 1-.59 1h.01zM.59 11H11.4c.59 0 .59.41.59 1 0 .59 0 1-.59 1H.59C0 13 0 12.59 0 12c0-.59 0-1 .59-1z"/></svg>
      </button>
    </div>

    <div class="Header-item Header-item--full flex-column flex-lg-row width-full flex-order-2 flex-lg-order-none mr-0 mr-lg-3 mt-3 mt-lg-0 Details-content--hidden">
        <div class="header-search flex-self-stretch flex-lg-self-auto mr-0 mr-lg-3 mb-3 mb-lg-0 scoped-search site-scoped-search js-site-search position-relative js-jump-to"
  role="combobox"
  aria-owns="jump-to-results"
  aria-label="Search or jump to"
  aria-haspopup="listbox"
  aria-expanded="false"
>
  <div class="position-relative">
    <!-- '"` --><!-- </textarea></xmp> --></option></form><form class="js-site-search-form" role="search" aria-label="Site" data-scope-type="Repository" data-scope-id="181817346" data-scoped-search-url="/jaskiratsingh98/redistricting-atlas-data/search" data-unscoped-search-url="/search" action="/jaskiratsingh98/redistricting-atlas-data/search" accept-charset="UTF-8" method="get"><input name="utf8" type="hidden" value="&#x2713;" />
      <label class="form-control input-sm header-search-wrapper p-0 header-search-wrapper-jump-to position-relative d-flex flex-justify-between flex-items-center js-chromeless-input-container">
        <input type="text"
          class="form-control input-sm header-search-input jump-to-field js-jump-to-field js-site-search-focus js-site-search-field is-clearable"
          data-hotkey="s,/"
          name="q"
          value=""
          placeholder="Search or jump to…"
          data-unscoped-placeholder="Search or jump to…"
          data-scoped-placeholder="Search or jump to…"
          autocapitalize="off"
          aria-autocomplete="list"
          aria-controls="jump-to-results"
          aria-label="Search or jump to…"
          data-jump-to-suggestions-path="/_graphql/GetSuggestedNavigationDestinations#csrf-token=M/wzMiVuVqLyYSRZey0t9EQAL/DYwuPDJXrRM7WjsKvbxY5sHRbmtKwyTRcmp3MTTRR7kXlBF46uIlAfcWvGhw=="
          spellcheck="false"
          autocomplete="off"
          >
          <input type="hidden" class="js-site-search-type-field" name="type" >
            <img src="https://github.githubassets.com/images/search-key-slash.svg" alt="" class="mr-2 header-search-key-slash">

            <div class="Box position-absolute overflow-hidden d-none jump-to-suggestions js-jump-to-suggestions-container">
              
<ul class="d-none js-jump-to-suggestions-template-container">
  

<li class="d-flex flex-justify-start flex-items-center p-0 f5 navigation-item js-navigation-item js-jump-to-suggestion" role="option">
  <a tabindex="-1" class="no-underline d-flex flex-auto flex-items-center jump-to-suggestions-path js-jump-to-suggestion-path js-navigation-open p-2" href="">
    <div class="jump-to-octicon js-jump-to-octicon flex-shrink-0 mr-2 text-center d-none">
      <svg height="16" width="16" class="octicon octicon-repo flex-shrink-0 js-jump-to-octicon-repo d-none" title="Repository" aria-label="Repository" viewBox="0 0 12 16" version="1.1" role="img"><path fill-rule="evenodd" d="M4 9H3V8h1v1zm0-3H3v1h1V6zm0-2H3v1h1V4zm0-2H3v1h1V2zm8-1v12c0 .55-.45 1-1 1H6v2l-1.5-1.5L3 16v-2H1c-.55 0-1-.45-1-1V1c0-.55.45-1 1-1h10c.55 0 1 .45 1 1zm-1 10H1v2h2v-1h3v1h5v-2zm0-10H2v9h9V1z"/></svg>
      <svg height="16" width="16" class="octicon octicon-project flex-shrink-0 js-jump-to-octicon-project d-none" title="Project" aria-label="Project" viewBox="0 0 15 16" version="1.1" role="img"><path fill-rule="evenodd" d="M10 12h3V2h-3v10zm-4-2h3V2H6v8zm-4 4h3V2H2v12zm-1 1h13V1H1v14zM14 0H1a1 1 0 0 0-1 1v14a1 1 0 0 0 1 1h13a1 1 0 0 0 1-1V1a1 1 0 0 0-1-1z"/></svg>
      <svg height="16" width="16" class="octicon octicon-search flex-shrink-0 js-jump-to-octicon-search d-none" title="Search" aria-label="Search" viewBox="0 0 16 16" version="1.1" role="img"><path fill-rule="evenodd" d="M15.7 13.3l-3.81-3.83A5.93 5.93 0 0 0 13 6c0-3.31-2.69-6-6-6S1 2.69 1 6s2.69 6 6 6c1.3 0 2.48-.41 3.47-1.11l3.83 3.81c.19.2.45.3.7.3.25 0 .52-.09.7-.3a.996.996 0 0 0 0-1.41v.01zM7 10.7c-2.59 0-4.7-2.11-4.7-4.7 0-2.59 2.11-4.7 4.7-4.7 2.59 0 4.7 2.11 4.7 4.7 0 2.59-2.11 4.7-4.7 4.7z"/></svg>
    </div>

    <img class="avatar mr-2 flex-shrink-0 js-jump-to-suggestion-avatar d-none" alt="" aria-label="Team" src="" width="28" height="28">

    <div class="jump-to-suggestion-name js-jump-to-suggestion-name flex-auto overflow-hidden text-left no-wrap css-truncate css-truncate-target">
    </div>

    <div class="border rounded-1 flex-shrink-0 bg-gray px-1 text-gray-light ml-1 f6 d-none js-jump-to-badge-search">
      <span class="js-jump-to-badge-search-text-default d-none" aria-label="in this repository">
        In this repository
      </span>
      <span class="js-jump-to-badge-search-text-global d-none" aria-label="in all of GitHub">
        All GitHub
      </span>
      <span aria-hidden="true" class="d-inline-block ml-1 v-align-middle">↵</span>
    </div>

    <div aria-hidden="true" class="border rounded-1 flex-shrink-0 bg-gray px-1 text-gray-light ml-1 f6 d-none d-on-nav-focus js-jump-to-badge-jump">
      Jump to
      <span class="d-inline-block ml-1 v-align-middle">↵</span>
    </div>
  </a>
</li>

</ul>

<ul class="d-none js-jump-to-no-results-template-container">
  <li class="d-flex flex-justify-center flex-items-center f5 d-none js-jump-to-suggestion p-2">
    <span class="text-gray">No suggested jump to results</span>
  </li>
</ul>

<ul id="jump-to-results" role="listbox" class="p-0 m-0 js-navigation-container jump-to-suggestions-results-container js-jump-to-suggestions-results-container">
  

<li class="d-flex flex-justify-start flex-items-center p-0 f5 navigation-item js-navigation-item js-jump-to-scoped-search d-none" role="option">
  <a tabindex="-1" class="no-underline d-flex flex-auto flex-items-center jump-to-suggestions-path js-jump-to-suggestion-path js-navigation-open p-2" href="">
    <div class="jump-to-octicon js-jump-to-octicon flex-shrink-0 mr-2 text-center d-none">
      <svg height="16" width="16" class="octicon octicon-repo flex-shrink-0 js-jump-to-octicon-repo d-none" title="Repository" aria-label="Repository" viewBox="0 0 12 16" version="1.1" role="img"><path fill-rule="evenodd" d="M4 9H3V8h1v1zm0-3H3v1h1V6zm0-2H3v1h1V4zm0-2H3v1h1V2zm8-1v12c0 .55-.45 1-1 1H6v2l-1.5-1.5L3 16v-2H1c-.55 0-1-.45-1-1V1c0-.55.45-1 1-1h10c.55 0 1 .45 1 1zm-1 10H1v2h2v-1h3v1h5v-2zm0-10H2v9h9V1z"/></svg>
      <svg height="16" width="16" class="octicon octicon-project flex-shrink-0 js-jump-to-octicon-project d-none" title="Project" aria-label="Project" viewBox="0 0 15 16" version="1.1" role="img"><path fill-rule="evenodd" d="M10 12h3V2h-3v10zm-4-2h3V2H6v8zm-4 4h3V2H2v12zm-1 1h13V1H1v14zM14 0H1a1 1 0 0 0-1 1v14a1 1 0 0 0 1 1h13a1 1 0 0 0 1-1V1a1 1 0 0 0-1-1z"/></svg>
      <svg height="16" width="16" class="octicon octicon-search flex-shrink-0 js-jump-to-octicon-search d-none" title="Search" aria-label="Search" viewBox="0 0 16 16" version="1.1" role="img"><path fill-rule="evenodd" d="M15.7 13.3l-3.81-3.83A5.93 5.93 0 0 0 13 6c0-3.31-2.69-6-6-6S1 2.69 1 6s2.69 6 6 6c1.3 0 2.48-.41 3.47-1.11l3.83 3.81c.19.2.45.3.7.3.25 0 .52-.09.7-.3a.996.996 0 0 0 0-1.41v.01zM7 10.7c-2.59 0-4.7-2.11-4.7-4.7 0-2.59 2.11-4.7 4.7-4.7 2.59 0 4.7 2.11 4.7 4.7 0 2.59-2.11 4.7-4.7 4.7z"/></svg>
    </div>

    <img class="avatar mr-2 flex-shrink-0 js-jump-to-suggestion-avatar d-none" alt="" aria-label="Team" src="" width="28" height="28">

    <div class="jump-to-suggestion-name js-jump-to-suggestion-name flex-auto overflow-hidden text-left no-wrap css-truncate css-truncate-target">
    </div>

    <div class="border rounded-1 flex-shrink-0 bg-gray px-1 text-gray-light ml-1 f6 d-none js-jump-to-badge-search">
      <span class="js-jump-to-badge-search-text-default d-none" aria-label="in this repository">
        In this repository
      </span>
      <span class="js-jump-to-badge-search-text-global d-none" aria-label="in all of GitHub">
        All GitHub
      </span>
      <span aria-hidden="true" class="d-inline-block ml-1 v-align-middle">↵</span>
    </div>

    <div aria-hidden="true" class="border rounded-1 flex-shrink-0 bg-gray px-1 text-gray-light ml-1 f6 d-none d-on-nav-focus js-jump-to-badge-jump">
      Jump to
      <span class="d-inline-block ml-1 v-align-middle">↵</span>
    </div>
  </a>
</li>

  

<li class="d-flex flex-justify-start flex-items-center p-0 f5 navigation-item js-navigation-item js-jump-to-global-search d-none" role="option">
  <a tabindex="-1" class="no-underline d-flex flex-auto flex-items-center jump-to-suggestions-path js-jump-to-suggestion-path js-navigation-open p-2" href="">
    <div class="jump-to-octicon js-jump-to-octicon flex-shrink-0 mr-2 text-center d-none">
      <svg height="16" width="16" class="octicon octicon-repo flex-shrink-0 js-jump-to-octicon-repo d-none" title="Repository" aria-label="Repository" viewBox="0 0 12 16" version="1.1" role="img"><path fill-rule="evenodd" d="M4 9H3V8h1v1zm0-3H3v1h1V6zm0-2H3v1h1V4zm0-2H3v1h1V2zm8-1v12c0 .55-.45 1-1 1H6v2l-1.5-1.5L3 16v-2H1c-.55 0-1-.45-1-1V1c0-.55.45-1 1-1h10c.55 0 1 .45 1 1zm-1 10H1v2h2v-1h3v1h5v-2zm0-10H2v9h9V1z"/></svg>
      <svg height="16" width="16" class="octicon octicon-project flex-shrink-0 js-jump-to-octicon-project d-none" title="Project" aria-label="Project" viewBox="0 0 15 16" version="1.1" role="img"><path fill-rule="evenodd" d="M10 12h3V2h-3v10zm-4-2h3V2H6v8zm-4 4h3V2H2v12zm-1 1h13V1H1v14zM14 0H1a1 1 0 0 0-1 1v14a1 1 0 0 0 1 1h13a1 1 0 0 0 1-1V1a1 1 0 0 0-1-1z"/></svg>
      <svg height="16" width="16" class="octicon octicon-search flex-shrink-0 js-jump-to-octicon-search d-none" title="Search" aria-label="Search" viewBox="0 0 16 16" version="1.1" role="img"><path fill-rule="evenodd" d="M15.7 13.3l-3.81-3.83A5.93 5.93 0 0 0 13 6c0-3.31-2.69-6-6-6S1 2.69 1 6s2.69 6 6 6c1.3 0 2.48-.41 3.47-1.11l3.83 3.81c.19.2.45.3.7.3.25 0 .52-.09.7-.3a.996.996 0 0 0 0-1.41v.01zM7 10.7c-2.59 0-4.7-2.11-4.7-4.7 0-2.59 2.11-4.7 4.7-4.7 2.59 0 4.7 2.11 4.7 4.7 0 2.59-2.11 4.7-4.7 4.7z"/></svg>
    </div>

    <img class="avatar mr-2 flex-shrink-0 js-jump-to-suggestion-avatar d-none" alt="" aria-label="Team" src="" width="28" height="28">

    <div class="jump-to-suggestion-name js-jump-to-suggestion-name flex-auto overflow-hidden text-left no-wrap css-truncate css-truncate-target">
    </div>

    <div class="border rounded-1 flex-shrink-0 bg-gray px-1 text-gray-light ml-1 f6 d-none js-jump-to-badge-search">
      <span class="js-jump-to-badge-search-text-default d-none" aria-label="in this repository">
        In this repository
      </span>
      <span class="js-jump-to-badge-search-text-global d-none" aria-label="in all of GitHub">
        All GitHub
      </span>
      <span aria-hidden="true" class="d-inline-block ml-1 v-align-middle">↵</span>
    </div>

    <div aria-hidden="true" class="border rounded-1 flex-shrink-0 bg-gray px-1 text-gray-light ml-1 f6 d-none d-on-nav-focus js-jump-to-badge-jump">
      Jump to
      <span class="d-inline-block ml-1 v-align-middle">↵</span>
    </div>
  </a>
</li>


    <li class="d-flex flex-justify-center flex-items-center p-0 f5 js-jump-to-suggestion">
      <img src="https://github.githubassets.com/images/spinners/octocat-spinner-128.gif" alt="Octocat Spinner Icon" class="m-2" width="28">
    </li>
</ul>

            </div>
      </label>
</form>  </div>
</div>


      <nav class="d-flex flex-column flex-lg-row flex-self-stretch flex-lg-self-auto" aria-label="Global">
    <a class="Header-link d-block d-lg-none py-2 py-lg-0 border-top border-lg-top-0 border-white-fade-15" data-ga-click="Header, click, Nav menu - item:dashboard:user" aria-label="Dashboard" href="/dashboard">
      Dashboard
</a>
  <a class="js-selected-navigation-item Header-link  mr-0 mr-lg-3 py-2 py-lg-0 border-top border-lg-top-0 border-white-fade-15" data-hotkey="g p" data-ga-click="Header, click, Nav menu - item:pulls context:user" aria-label="Pull requests you created" data-selected-links="/pulls /pulls/assigned /pulls/mentioned /pulls" href="/pulls">
    Pull requests
</a>
  <a class="js-selected-navigation-item Header-link  mr-0 mr-lg-3 py-2 py-lg-0 border-top border-lg-top-0 border-white-fade-15" data-hotkey="g i" data-ga-click="Header, click, Nav menu - item:issues context:user" aria-label="Issues you created" data-selected-links="/issues /issues/assigned /issues/mentioned /issues" href="/issues">
    Issues
</a>
    <a class="js-selected-navigation-item Header-link  mr-0 mr-lg-3 py-2 py-lg-0 border-top border-lg-top-0 border-white-fade-15" data-ga-click="Header, click, Nav menu - item:marketplace context:user" data-octo-click="marketplace_click" data-octo-dimensions="location:nav_bar" data-selected-links=" /marketplace" href="/marketplace">
      Marketplace
</a>      

  <a class="js-selected-navigation-item Header-link  mr-0 mr-lg-3 py-2 py-lg-0 border-top border-lg-top-0 border-white-fade-15" data-ga-click="Header, click, Nav menu - item:explore" data-selected-links="/explore /trending /trending/developers /integrations /integrations/feature/code /integrations/feature/collaborate /integrations/feature/ship showcases showcases_search showcases_landing /explore" href="/explore">
    Explore
</a>
    <a class="Header-link d-block d-lg-none mr-0 mr-lg-3 py-2 py-lg-0 border-top border-lg-top-0 border-white-fade-15" aria-label="View profile and more" aria-expanded="false" aria-haspopup="false" href="https://github.com/jaskiratsingh98">
      <img class="avatar" src="https://avatars2.githubusercontent.com/u/45077319?s=40&amp;v=4" width="20" height="20" alt="@jaskiratsingh98" />
      jaskiratsingh98
</a>
    <!-- '"` --><!-- </textarea></xmp> --></option></form><form action="/logout" accept-charset="UTF-8" method="post"><input name="utf8" type="hidden" value="&#x2713;" /><input type="hidden" name="authenticity_token" value="HTj2hUJfbkF4vaCOgnv8Mj7pgxEs3GXm+Qz99THq9LE8T+vk6kxqVbyKHV69pE4yvb0MLjFmGeDrJ8acAFvIoA==" />
      <button type="submit" class="Header-link mr-0 mr-lg-3 py-2 py-lg-0 border-top border-lg-top-0 border-white-fade-15 d-lg-none btn-link d-block width-full text-left" data-ga-click="Header, sign out, icon:logout" style="padding-left: 2px;">
        <svg class="octicon octicon-sign-out v-align-middle" viewBox="0 0 16 16" version="1.1" width="16" height="16" aria-hidden="true"><path fill-rule="evenodd" d="M12 9V7H8V5h4V3l4 3-4 3zm-2 3H6V3L2 1h8v3h1V1c0-.55-.45-1-1-1H1C.45 0 0 .45 0 1v11.38c0 .39.22.73.55.91L6 16.01V13h4c.55 0 1-.45 1-1V8h-1v4z"/></svg>
        Sign out
      </button>
</form></nav>

    </div>

    <div class="Header-item Header-item--full flex-justify-center d-lg-none position-relative">
      <div class="css-truncate css-truncate-target width-fit position-absolute left-0 right-0 text-center">
              <svg class="octicon octicon-repo-forked" viewBox="0 0 10 16" version="1.1" width="10" height="16" aria-hidden="true"><path fill-rule="evenodd" d="M8 1a1.993 1.993 0 0 0-1 3.72V6L5 8 3 6V4.72A1.993 1.993 0 0 0 2 1a1.993 1.993 0 0 0-1 3.72V6.5l3 3v1.78A1.993 1.993 0 0 0 5 15a1.993 1.993 0 0 0 1-3.72V9.5l3-3V4.72A1.993 1.993 0 0 0 8 1zM2 4.2C1.34 4.2.8 3.65.8 3c0-.65.55-1.2 1.2-1.2.65 0 1.2.55 1.2 1.2 0 .65-.55 1.2-1.2 1.2zm3 10c-.66 0-1.2-.55-1.2-1.2 0-.65.55-1.2 1.2-1.2.65 0 1.2.55 1.2 1.2 0 .65-.55 1.2-1.2 1.2zm3-10c-.66 0-1.2-.55-1.2-1.2 0-.65.55-1.2 1.2-1.2.65 0 1.2.55 1.2 1.2 0 .65-.55 1.2-1.2 1.2z"/></svg>
    <a class="Header-link" href="/jaskiratsingh98">jaskiratsingh98</a>
    /
    <a class="Header-link" href="/jaskiratsingh98/redistricting-atlas-data">redistricting-atlas-data</a>

</div>
    </div>

    <div class="Header-item mr-0 mr-lg-3 flex-order-1 flex-lg-order-none">
      
    <a aria-label="You have no unread notifications" class="Header-link notification-indicator tooltipped tooltipped-s my-2 my-lg-0 js-socket-channel js-notification-indicator" data-hotkey="g n" data-ga-click="Header, go to notifications, icon:read" data-channel="notification-changed:45077319" href="/notifications">
        <span class="mail-status "></span>
        <svg class="octicon octicon-bell" viewBox="0 0 14 16" version="1.1" width="14" height="16" aria-hidden="true"><path fill-rule="evenodd" d="M14 12v1H0v-1l.73-.58c.77-.77.81-2.55 1.19-4.42C2.69 3.23 6 2 6 2c0-.55.45-1 1-1s1 .45 1 1c0 0 3.39 1.23 4.16 5 .38 1.88.42 3.66 1.19 4.42l.66.58H14zm-7 4c1.11 0 2-.89 2-2H5c0 1.11.89 2 2 2z"/></svg>
</a>
    </div>


    <div class="Header-item position-relative d-none d-lg-flex">
      <details class="details-overlay details-reset">
  <summary class="Header-link"
      aria-label="Create new…"
      data-ga-click="Header, create new, icon:add">
    <svg class="octicon octicon-plus" viewBox="0 0 12 16" version="1.1" width="12" height="16" aria-hidden="true"><path fill-rule="evenodd" d="M12 9H7v5H5V9H0V7h5V2h2v5h5v2z"/></svg> <span class="dropdown-caret"></span>
  </summary>
  <details-menu class="dropdown-menu dropdown-menu-sw">
    
<a role="menuitem" class="dropdown-item" href="/new" data-ga-click="Header, create new repository">
  New repository
</a>

  <a role="menuitem" class="dropdown-item" href="/new/import" data-ga-click="Header, import a repository">
    Import repository
  </a>

<a role="menuitem" class="dropdown-item" href="https://gist.github.com/" data-ga-click="Header, create new gist">
  New gist
</a>

  <a role="menuitem" class="dropdown-item" href="/organizations/new" data-ga-click="Header, create new organization">
    New organization
  </a>



  <a role="menuitem" class="dropdown-item" href="/new/project" data-ga-click="Header, create new project">
    New project
  </a>

  </details-menu>
</details>

    </div>

    <div class="Header-item position-relative mr-0 d-none d-lg-flex">
      
<details class="details-overlay details-reset">
  <summary class="Header-link"
    aria-label="View profile and more"
    data-ga-click="Header, show menu, icon:avatar">
    <img alt="@jaskiratsingh98" class="avatar" src="https://avatars2.githubusercontent.com/u/45077319?s=40&amp;v=4" height="20" width="20">
    <span class="dropdown-caret"></span>
  </summary>
  <details-menu class="dropdown-menu dropdown-menu-sw mt-2" style="width: 180px">
    <div class="header-nav-current-user css-truncate"><a role="menuitem" class="no-underline user-profile-link px-3 pt-2 pb-2 mb-n2 mt-n1 d-block" href="/jaskiratsingh98" data-ga-click="Header, go to profile, text:Signed in as">Signed in as <strong class="css-truncate-target">jaskiratsingh98</strong></a></div>
    <div class="dropdown-divider"></div>

    <div class="pl-3 pr-5 f6 user-status-container js-user-status-context pb-1" data-url="/users/status?compact=1&amp;link_mentions=0&amp;truncate=1">
      
<div class="js-user-status-container user-status-compact" data-team-hovercards-enabled>
  <details class="js-user-status-details details-reset details-overlay details-overlay-dark">
    <summary class="btn-link no-underline js-toggle-user-status-edit toggle-user-status-edit width-full " aria-haspopup="dialog" role="menuitem" data-hydro-click="{&quot;event_type&quot;:&quot;user_profile.click&quot;,&quot;payload&quot;:{&quot;profile_user_id&quot;:45077319,&quot;target&quot;:&quot;EDIT_USER_STATUS&quot;,&quot;user_id&quot;:45077319,&quot;client_id&quot;:&quot;1583147932.1539996391&quot;,&quot;originating_request_id&quot;:&quot;E5FC:61F3:AF1586:14B510E:5CB6AC3A&quot;,&quot;originating_url&quot;:&quot;https://github.com/jaskiratsingh98/redistricting-atlas-data/blob/master/shp/CT-current.prj&quot;,&quot;referrer&quot;:&quot;https://github.com/jaskiratsingh98/redistricting-atlas-data/tree/master/shp&quot;}}" data-hydro-click-hmac="a37034a7612b289fb5084c594866da9fa5fdfbe57825452cbe4afb0214640ef6">
      <div class="f6 d-inline-block v-align-middle  user-status-emoji-only-header pl-0 circle lh-condensed user-status-header " style="max-width: 29px">
        <div class="user-status-emoji-container flex-shrink-0 mr-1">
          <svg class="octicon octicon-smiley" viewBox="0 0 16 16" version="1.1" width="16" height="16" aria-hidden="true"><path fill-rule="evenodd" d="M8 0C3.58 0 0 3.58 0 8s3.58 8 8 8 8-3.58 8-8-3.58-8-8-8zm4.81 12.81a6.72 6.72 0 0 1-2.17 1.45c-.83.36-1.72.53-2.64.53-.92 0-1.81-.17-2.64-.53-.81-.34-1.55-.83-2.17-1.45a6.773 6.773 0 0 1-1.45-2.17A6.59 6.59 0 0 1 1.21 8c0-.92.17-1.81.53-2.64.34-.81.83-1.55 1.45-2.17.62-.62 1.36-1.11 2.17-1.45A6.59 6.59 0 0 1 8 1.21c.92 0 1.81.17 2.64.53.81.34 1.55.83 2.17 1.45.62.62 1.11 1.36 1.45 2.17.36.83.53 1.72.53 2.64 0 .92-.17 1.81-.53 2.64-.34.81-.83 1.55-1.45 2.17zM4 6.8v-.59c0-.66.53-1.19 1.2-1.19h.59c.66 0 1.19.53 1.19 1.19v.59c0 .67-.53 1.2-1.19 1.2H5.2C4.53 8 4 7.47 4 6.8zm5 0v-.59c0-.66.53-1.19 1.2-1.19h.59c.66 0 1.19.53 1.19 1.19v.59c0 .67-.53 1.2-1.19 1.2h-.59C9.53 8 9 7.47 9 6.8zm4 3.2c-.72 1.88-2.91 3-5 3s-4.28-1.13-5-3c-.14-.39.23-1 .66-1h8.59c.41 0 .89.61.75 1z"/></svg>
        </div>
      </div>
      <div class="d-inline-block v-align-middle user-status-message-wrapper f6 lh-condensed ws-normal pt-1">
          <span class="link-gray">Set your status</span>
      </div>
</summary>    <details-dialog class="details-dialog rounded-1 anim-fade-in fast Box Box--overlay" role="dialog" tabindex="-1">
      <!-- '"` --><!-- </textarea></xmp> --></option></form><form class="position-relative flex-auto js-user-status-form" action="/users/status?compact=1&amp;link_mentions=0&amp;truncate=1" accept-charset="UTF-8" method="post"><input name="utf8" type="hidden" value="&#x2713;" /><input type="hidden" name="_method" value="put" /><input type="hidden" name="authenticity_token" value="arJz1KZvW89qtJMqCQkW4eYZv0C58K3Ob6AjvgSxwXC1rVIuY0IZ7f4KCHfRRb0+9cGT47t0n1hOS6fioHi2HA==" />
        <div class="Box-header bg-gray border-bottom p-3">
          <button class="Box-btn-octicon js-toggle-user-status-edit btn-octicon float-right" type="reset" aria-label="Close dialog" data-close-dialog>
            <svg class="octicon octicon-x" viewBox="0 0 12 16" version="1.1" width="12" height="16" aria-hidden="true"><path fill-rule="evenodd" d="M7.48 8l3.75 3.75-1.48 1.48L6 9.48l-3.75 3.75-1.48-1.48L4.52 8 .77 4.25l1.48-1.48L6 6.52l3.75-3.75 1.48 1.48L7.48 8z"/></svg>
          </button>
          <h3 class="Box-title f5 text-bold text-gray-dark">Edit status</h3>
        </div>
        <input type="hidden" name="emoji" class="js-user-status-emoji-field" value="">
        <input type="hidden" name="organization_id" class="js-user-status-org-id-field" value="">
        <div class="px-3 py-2 text-gray-dark">
          <div class="js-characters-remaining-container js-suggester-container position-relative mt-2">
            <div class="input-group d-table form-group my-0 js-user-status-form-group">
              <span class="input-group-button d-table-cell v-align-middle" style="width: 1%">
                <button type="button" aria-label="Choose an emoji" class="btn-outline btn js-toggle-user-status-emoji-picker btn-open-emoji-picker">
                  <span class="js-user-status-original-emoji" hidden></span>
                  <span class="js-user-status-custom-emoji"></span>
                  <span class="js-user-status-no-emoji-icon" >
                    <svg class="octicon octicon-smiley" viewBox="0 0 16 16" version="1.1" width="16" height="16" aria-hidden="true"><path fill-rule="evenodd" d="M8 0C3.58 0 0 3.58 0 8s3.58 8 8 8 8-3.58 8-8-3.58-8-8-8zm4.81 12.81a6.72 6.72 0 0 1-2.17 1.45c-.83.36-1.72.53-2.64.53-.92 0-1.81-.17-2.64-.53-.81-.34-1.55-.83-2.17-1.45a6.773 6.773 0 0 1-1.45-2.17A6.59 6.59 0 0 1 1.21 8c0-.92.17-1.81.53-2.64.34-.81.83-1.55 1.45-2.17.62-.62 1.36-1.11 2.17-1.45A6.59 6.59 0 0 1 8 1.21c.92 0 1.81.17 2.64.53.81.34 1.55.83 2.17 1.45.62.62 1.11 1.36 1.45 2.17.36.83.53 1.72.53 2.64 0 .92-.17 1.81-.53 2.64-.34.81-.83 1.55-1.45 2.17zM4 6.8v-.59c0-.66.53-1.19 1.2-1.19h.59c.66 0 1.19.53 1.19 1.19v.59c0 .67-.53 1.2-1.19 1.2H5.2C4.53 8 4 7.47 4 6.8zm5 0v-.59c0-.66.53-1.19 1.2-1.19h.59c.66 0 1.19.53 1.19 1.19v.59c0 .67-.53 1.2-1.19 1.2h-.59C9.53 8 9 7.47 9 6.8zm4 3.2c-.72 1.88-2.91 3-5 3s-4.28-1.13-5-3c-.14-.39.23-1 .66-1h8.59c.41 0 .89.61.75 1z"/></svg>
                  </span>
                </button>
              </span>
              <input type="text" autocomplete="off" data-maxlength="80" class="js-suggester-field d-table-cell width-full form-control js-user-status-message-field js-characters-remaining-field" placeholder="What's happening?" name="message" required value="" aria-label="What is your current status?">
              <div class="error">Could not update your status, please try again.</div>
            </div>
            <div class="suggester-container">
              <div class="suggester js-suggester js-navigation-container" data-url="/autocomplete/user-suggestions" data-no-org-url="/autocomplete/user-suggestions" data-org-url="/suggestions" hidden>
              </div>
            </div>
            <div style="margin-left: 53px" class="my-1 text-small label-characters-remaining js-characters-remaining" data-suffix="remaining" hidden>
              80 remaining
            </div>
          </div>
          <include-fragment class="js-user-status-emoji-picker" data-url="/users/status/emoji"></include-fragment>
          <div class="overflow-auto border-bottom ml-n3 mr-n3 px-3" style="max-height: 33vh">
            <div class="user-status-suggestions js-user-status-suggestions collapsed overflow-hidden">
              <h4 class="f6 text-normal my-3">Suggestions:</h4>
              <div class="mx-3 mt-2 clearfix">
                  <div class="float-left col-6">
                      <button type="button" value=":palm_tree:" class="d-flex flex-items-baseline flex-items-stretch lh-condensed f6 btn-link link-gray no-underline js-predefined-user-status mb-1">
                        <div class="emoji-status-width mr-2 v-align-middle js-predefined-user-status-emoji">
                          <g-emoji alias="palm_tree" fallback-src="https://github.githubassets.com/images/icons/emoji/unicode/1f334.png">🌴</g-emoji>
                        </div>
                        <div class="d-flex flex-items-center no-underline js-predefined-user-status-message" style="border-left: 1px solid transparent">
                          On vacation
                        </div>
                      </button>
                      <button type="button" value=":face_with_thermometer:" class="d-flex flex-items-baseline flex-items-stretch lh-condensed f6 btn-link link-gray no-underline js-predefined-user-status mb-1">
                        <div class="emoji-status-width mr-2 v-align-middle js-predefined-user-status-emoji">
                          <g-emoji alias="face_with_thermometer" fallback-src="https://github.githubassets.com/images/icons/emoji/unicode/1f912.png">🤒</g-emoji>
                        </div>
                        <div class="d-flex flex-items-center no-underline js-predefined-user-status-message" style="border-left: 1px solid transparent">
                          Out sick
                        </div>
                      </button>
                  </div>
                  <div class="float-left col-6">
                      <button type="button" value=":house:" class="d-flex flex-items-baseline flex-items-stretch lh-condensed f6 btn-link link-gray no-underline js-predefined-user-status mb-1">
                        <div class="emoji-status-width mr-2 v-align-middle js-predefined-user-status-emoji">
                          <g-emoji alias="house" fallback-src="https://github.githubassets.com/images/icons/emoji/unicode/1f3e0.png">🏠</g-emoji>
                        </div>
                        <div class="d-flex flex-items-center no-underline js-predefined-user-status-message" style="border-left: 1px solid transparent">
                          Working from home
                        </div>
                      </button>
                      <button type="button" value=":dart:" class="d-flex flex-items-baseline flex-items-stretch lh-condensed f6 btn-link link-gray no-underline js-predefined-user-status mb-1">
                        <div class="emoji-status-width mr-2 v-align-middle js-predefined-user-status-emoji">
                          <g-emoji alias="dart" fallback-src="https://github.githubassets.com/images/icons/emoji/unicode/1f3af.png">🎯</g-emoji>
                        </div>
                        <div class="d-flex flex-items-center no-underline js-predefined-user-status-message" style="border-left: 1px solid transparent">
                          Focusing
                        </div>
                      </button>
                  </div>
              </div>
            </div>
            <div class="user-status-limited-availability-container">
              <div class="form-checkbox my-0">
                <input type="checkbox" name="limited_availability" value="1" class="js-user-status-limited-availability-checkbox" data-default-message="I may be slow to respond." aria-describedby="limited-availability-help-text-truncate-true" id="limited-availability-truncate-true">
                <label class="d-block f5 text-gray-dark mb-1" for="limited-availability-truncate-true">
                  Busy
                </label>
                <p class="note" id="limited-availability-help-text-truncate-true">
                  When others mention you, assign you, or request your review,
                  GitHub will let them know that you have limited availability.
                </p>
              </div>
            </div>
          </div>
            

<div class="d-inline-block f5 mr-2 pt-3 pb-2" >
  <div class="d-inline-block mr-1">
    Clear status
  </div>

  <details class="js-user-status-expire-drop-down f6 dropdown details-reset details-overlay d-inline-block mr-2">
    <summary class="f5 btn-link link-gray-dark border px-2 py-1 rounded-1" aria-haspopup="true">
      <div class="js-user-status-expiration-interval-selected d-inline-block v-align-baseline">
        Never
      </div>
      <div class="dropdown-caret"></div>
    </summary>

    <ul class="dropdown-menu dropdown-menu-se pl-0 overflow-auto" style="width: 220px; max-height: 15.5em">
      <li>
        <button type="button" class="btn-link dropdown-item js-user-status-expire-button ws-normal" title="Never">
          <span class="d-inline-block text-bold mb-1">Never</span>
          <div class="f6 lh-condensed">Keep this status until you clear your status or edit your status.</div>
        </button>
      </li>
      <li class="dropdown-divider" role="none"></li>
        <li>
          <button type="button" class="btn-link dropdown-item ws-normal js-user-status-expire-button" title="in 30 minutes" value="2019-04-17T01:02:03-04:00">
            in 30 minutes
          </button>
        </li>
        <li>
          <button type="button" class="btn-link dropdown-item ws-normal js-user-status-expire-button" title="in 1 hour" value="2019-04-17T01:32:03-04:00">
            in 1 hour
          </button>
        </li>
        <li>
          <button type="button" class="btn-link dropdown-item ws-normal js-user-status-expire-button" title="in 4 hours" value="2019-04-17T04:32:03-04:00">
            in 4 hours
          </button>
        </li>
        <li>
          <button type="button" class="btn-link dropdown-item ws-normal js-user-status-expire-button" title="today" value="2019-04-17T23:59:59-04:00">
            today
          </button>
        </li>
        <li>
          <button type="button" class="btn-link dropdown-item ws-normal js-user-status-expire-button" title="this week" value="2019-04-21T23:59:59-04:00">
            this week
          </button>
        </li>
    </ul>
  </details>
  <input class="js-user-status-expiration-date-input" type="hidden" name="expires_at" value="">
</div>

          <include-fragment class="js-user-status-org-picker" data-url="/users/status/organizations"></include-fragment>
        </div>
        <div class="d-flex flex-items-center flex-justify-between p-3 border-top">
          <button type="submit" disabled class="width-full btn btn-primary mr-2 js-user-status-submit">
            Set status
          </button>
          <button type="button" disabled class="width-full js-clear-user-status-button btn ml-2 ">
            Clear status
          </button>
        </div>
</form>    </details-dialog>
  </details>
</div>

    </div>
    <div class="dropdown-divider"></div>


    <a role="menuitem" class="dropdown-item" href="/jaskiratsingh98" data-ga-click="Header, go to profile, text:your profile">Your profile</a>
    <a role="menuitem" class="dropdown-item" href="/jaskiratsingh98?tab=repositories" data-ga-click="Header, go to repositories, text:your repositories">Your repositories</a>

    <a role="menuitem" class="dropdown-item" href="/jaskiratsingh98?tab=projects" data-ga-click="Header, go to projects, text:your projects">Your projects</a>

    <a role="menuitem" class="dropdown-item" href="/jaskiratsingh98?tab=stars" data-ga-click="Header, go to starred repos, text:your stars">Your stars</a>
      <a role="menuitem" class="dropdown-item" href="https://gist.github.com/" data-ga-click="Header, your gists, text:your gists">Your gists</a>

    <div class="dropdown-divider"></div>
    <a role="menuitem" class="dropdown-item" href="https://help.github.com" data-ga-click="Header, go to help, text:help">Help</a>
    <a role="menuitem" class="dropdown-item" href="/settings/profile" data-ga-click="Header, go to settings, icon:settings">Settings</a>
    <!-- '"` --><!-- </textarea></xmp> --></option></form><form class="logout-form" action="/logout" accept-charset="UTF-8" method="post"><input name="utf8" type="hidden" value="&#x2713;" /><input type="hidden" name="authenticity_token" value="cwRRREh10MVnvyUvIFWYLxk4vzAkrTTM+avPYUhYgSlSc0wl4GbU0aOImP8fiiovmmwwDzkXSMrrgPQIeem9OA==" />
      
      <button type="submit" class="dropdown-item dropdown-signout" data-ga-click="Header, sign out, icon:logout" role="menuitem">
        Sign out
      </button>
</form>  </details-menu>
</details>

    </div>

  </header>

      

  </div>

  <div id="start-of-content" class="show-on-focus"></div>


    <div id="js-flash-container">

</div>



  <div class="application-main " data-commit-hovercards-enabled>
        <div itemscope itemtype="http://schema.org/SoftwareSourceCode" class="">
    <main  >
      


  






  <div class="pagehead repohead instapaper_ignore readability-menu experiment-repo-nav pt-0 pt-lg-4 ">
    <div class="repohead-details-container clearfix container-lg p-responsive d-none d-lg-block">

      <ul class="pagehead-actions">



  <li>
    
    <!-- '"` --><!-- </textarea></xmp> --></option></form><form data-remote="true" class="clearfix js-social-form js-social-container" action="/notifications/subscribe" accept-charset="UTF-8" method="post"><input name="utf8" type="hidden" value="&#x2713;" /><input type="hidden" name="authenticity_token" value="0kPB031J02qPhz3w/UPpLoc1/Wrpgmim3s4phXp2RAdIH9hMo4i4t2wBGlA/3xN3ET1RQ7vKqSbpXS0qEVAJdA==" />      <input type="hidden" name="repository_id" value="181817346">

      <details class="details-reset details-overlay select-menu float-left">
        <summary class="select-menu-button float-left btn btn-sm btn-with-count" data-hydro-click="{&quot;event_type&quot;:&quot;repository.click&quot;,&quot;payload&quot;:{&quot;target&quot;:&quot;WATCH_BUTTON&quot;,&quot;repository_id&quot;:181817346,&quot;client_id&quot;:&quot;1583147932.1539996391&quot;,&quot;originating_request_id&quot;:&quot;E5FC:61F3:AF1586:14B510E:5CB6AC3A&quot;,&quot;originating_url&quot;:&quot;https://github.com/jaskiratsingh98/redistricting-atlas-data/blob/master/shp/CT-current.prj&quot;,&quot;referrer&quot;:&quot;https://github.com/jaskiratsingh98/redistricting-atlas-data/tree/master/shp&quot;,&quot;user_id&quot;:45077319}}" data-hydro-click-hmac="1dda04c3bcc4979364dcd98af8c9be313361d3b81fd720da6b3d3f96405359e8" data-ga-click="Repository, click Watch settings, action:blob#show">            <span data-menu-button>
                <svg class="octicon octicon-eye v-align-text-bottom" viewBox="0 0 16 16" version="1.1" width="16" height="16" aria-hidden="true"><path fill-rule="evenodd" d="M8.06 2C3 2 0 8 0 8s3 6 8.06 6C13 14 16 8 16 8s-3-6-7.94-6zM8 12c-2.2 0-4-1.78-4-4 0-2.2 1.8-4 4-4 2.22 0 4 1.8 4 4 0 2.22-1.78 4-4 4zm2-4c0 1.11-.89 2-2 2-1.11 0-2-.89-2-2 0-1.11.89-2 2-2 1.11 0 2 .89 2 2z"/></svg>
                Watch
            </span>
</summary>        <details-menu
          class="select-menu-modal position-absolute mt-5"
          style="z-index: 99; ">
          <div class="select-menu-header">
            <span class="select-menu-title">Notifications</span>
          </div>
          <div class="select-menu-list">
            <button type="submit" name="do" value="included" class="select-menu-item width-full" aria-checked="true" role="menuitemradio">
              <svg class="octicon octicon-check select-menu-item-icon" viewBox="0 0 12 16" version="1.1" width="12" height="16" aria-hidden="true"><path fill-rule="evenodd" d="M12 5l-8 8-4-4 1.5-1.5L4 10l6.5-6.5L12 5z"/></svg>
              <div class="select-menu-item-text">
                <span class="select-menu-item-heading">Not watching</span>
                <span class="description">Be notified only when participating or @mentioned.</span>
                <span class="hidden-select-button-text" data-menu-button-contents>
                  <svg class="octicon octicon-eye v-align-text-bottom" viewBox="0 0 16 16" version="1.1" width="16" height="16" aria-hidden="true"><path fill-rule="evenodd" d="M8.06 2C3 2 0 8 0 8s3 6 8.06 6C13 14 16 8 16 8s-3-6-7.94-6zM8 12c-2.2 0-4-1.78-4-4 0-2.2 1.8-4 4-4 2.22 0 4 1.8 4 4 0 2.22-1.78 4-4 4zm2-4c0 1.11-.89 2-2 2-1.11 0-2-.89-2-2 0-1.11.89-2 2-2 1.11 0 2 .89 2 2z"/></svg>
                  Watch
                </span>
              </div>
            </button>

            <button type="submit" name="do" value="release_only" class="select-menu-item width-full" aria-checked="false" role="menuitemradio">
              <svg class="octicon octicon-check select-menu-item-icon" viewBox="0 0 12 16" version="1.1" width="12" height="16" aria-hidden="true"><path fill-rule="evenodd" d="M12 5l-8 8-4-4 1.5-1.5L4 10l6.5-6.5L12 5z"/></svg>
              <div class="select-menu-item-text">
                <span class="select-menu-item-heading">Releases only</span>
                <span class="description">Be notified of new releases, and when participating or @mentioned.</span>
                <span class="hidden-select-button-text" data-menu-button-contents>
                  <svg class="octicon octicon-eye v-align-text-bottom" viewBox="0 0 16 16" version="1.1" width="16" height="16" aria-hidden="true"><path fill-rule="evenodd" d="M8.06 2C3 2 0 8 0 8s3 6 8.06 6C13 14 16 8 16 8s-3-6-7.94-6zM8 12c-2.2 0-4-1.78-4-4 0-2.2 1.8-4 4-4 2.22 0 4 1.8 4 4 0 2.22-1.78 4-4 4zm2-4c0 1.11-.89 2-2 2-1.11 0-2-.89-2-2 0-1.11.89-2 2-2 1.11 0 2 .89 2 2z"/></svg>
                  Unwatch releases
                </span>
              </div>
            </button>

            <button type="submit" name="do" value="subscribed" class="select-menu-item width-full" aria-checked="false" role="menuitemradio">
              <svg class="octicon octicon-check select-menu-item-icon" viewBox="0 0 12 16" version="1.1" width="12" height="16" aria-hidden="true"><path fill-rule="evenodd" d="M12 5l-8 8-4-4 1.5-1.5L4 10l6.5-6.5L12 5z"/></svg>
              <div class="select-menu-item-text">
                <span class="select-menu-item-heading">Watching</span>
                <span class="description">Be notified of all conversations.</span>
                <span class="hidden-select-button-text" data-menu-button-contents>
                  <svg class="octicon octicon-eye v-align-text-bottom" viewBox="0 0 16 16" version="1.1" width="16" height="16" aria-hidden="true"><path fill-rule="evenodd" d="M8.06 2C3 2 0 8 0 8s3 6 8.06 6C13 14 16 8 16 8s-3-6-7.94-6zM8 12c-2.2 0-4-1.78-4-4 0-2.2 1.8-4 4-4 2.22 0 4 1.8 4 4 0 2.22-1.78 4-4 4zm2-4c0 1.11-.89 2-2 2-1.11 0-2-.89-2-2 0-1.11.89-2 2-2 1.11 0 2 .89 2 2z"/></svg>
                  Unwatch
                </span>
              </div>
            </button>

            <button type="submit" name="do" value="ignore" class="select-menu-item width-full" aria-checked="false" role="menuitemradio">
              <svg class="octicon octicon-check select-menu-item-icon" viewBox="0 0 12 16" version="1.1" width="12" height="16" aria-hidden="true"><path fill-rule="evenodd" d="M12 5l-8 8-4-4 1.5-1.5L4 10l6.5-6.5L12 5z"/></svg>
              <div class="select-menu-item-text">
                <span class="select-menu-item-heading">Ignoring</span>
                <span class="description">Never be notified.</span>
                <span class="hidden-select-button-text" data-menu-button-contents>
                  <svg class="octicon octicon-mute v-align-text-bottom" viewBox="0 0 16 16" version="1.1" width="16" height="16" aria-hidden="true"><path fill-rule="evenodd" d="M8 2.81v10.38c0 .67-.81 1-1.28.53L3 10H1c-.55 0-1-.45-1-1V7c0-.55.45-1 1-1h2l3.72-3.72C7.19 1.81 8 2.14 8 2.81zm7.53 3.22l-1.06-1.06-1.97 1.97-1.97-1.97-1.06 1.06L11.44 8 9.47 9.97l1.06 1.06 1.97-1.97 1.97 1.97 1.06-1.06L13.56 8l1.97-1.97z"/></svg>
                  Stop ignoring
                </span>
              </div>
            </button>

          </div>
        </details-menu>
      </details>
        <a class="social-count js-social-count"
          href="/jaskiratsingh98/redistricting-atlas-data/watchers"
          aria-label="0 users are watching this repository">
          0
        </a>
</form>
  </li>

  <li>
      <div class="js-toggler-container js-social-container starring-container ">
    <!-- '"` --><!-- </textarea></xmp> --></option></form><form class="starred js-social-form" action="/jaskiratsingh98/redistricting-atlas-data/unstar" accept-charset="UTF-8" method="post"><input name="utf8" type="hidden" value="&#x2713;" /><input type="hidden" name="authenticity_token" value="oxERhwh/2/vewFapnAzJDc7xPJTWCOf7lRMVXk8EeKNmuzFR3fNB8XMQb9gGka03g/fCBekI1XbOvglHDpFyQg==" />
      <input type="hidden" name="context" value="repository"></input>
      <button type="submit" class="btn btn-sm btn-with-count js-toggler-target" aria-label="Unstar this repository" title="Unstar jaskiratsingh98/redistricting-atlas-data" data-hydro-click="{&quot;event_type&quot;:&quot;repository.click&quot;,&quot;payload&quot;:{&quot;target&quot;:&quot;UNSTAR_BUTTON&quot;,&quot;repository_id&quot;:181817346,&quot;client_id&quot;:&quot;1583147932.1539996391&quot;,&quot;originating_request_id&quot;:&quot;E5FC:61F3:AF1586:14B510E:5CB6AC3A&quot;,&quot;originating_url&quot;:&quot;https://github.com/jaskiratsingh98/redistricting-atlas-data/blob/master/shp/CT-current.prj&quot;,&quot;referrer&quot;:&quot;https://github.com/jaskiratsingh98/redistricting-atlas-data/tree/master/shp&quot;,&quot;user_id&quot;:45077319}}" data-hydro-click-hmac="f60304e3798fbbf0246086ea43c37e9959672f2431cf9e004506ab3487c3ee3c" data-ga-click="Repository, click unstar button, action:blob#show; text:Unstar">        <svg class="octicon octicon-star v-align-text-bottom" viewBox="0 0 14 16" version="1.1" width="14" height="16" aria-hidden="true"><path fill-rule="evenodd" d="M14 6l-4.9-.64L7 1 4.9 5.36 0 6l3.6 3.26L2.67 14 7 11.67 11.33 14l-.93-4.74L14 6z"/></svg>
        Unstar
</button>        <a class="social-count js-social-count" href="/jaskiratsingh98/redistricting-atlas-data/stargazers"
           aria-label="0 users starred this repository">
          0
        </a>
</form>
    <!-- '"` --><!-- </textarea></xmp> --></option></form><form class="unstarred js-social-form" action="/jaskiratsingh98/redistricting-atlas-data/star" accept-charset="UTF-8" method="post"><input name="utf8" type="hidden" value="&#x2713;" /><input type="hidden" name="authenticity_token" value="X86qshTyUk43qENGlRbdhiKGj0mU26OhvpncxcTypei/K8gqJuAcBuYGFwKbxTCE5aSSAC5bOj4JfItFoWskUA==" />
      <input type="hidden" name="context" value="repository"></input>
      <button type="submit" class="btn btn-sm btn-with-count js-toggler-target" aria-label="Unstar this repository" title="Star jaskiratsingh98/redistricting-atlas-data" data-hydro-click="{&quot;event_type&quot;:&quot;repository.click&quot;,&quot;payload&quot;:{&quot;target&quot;:&quot;STAR_BUTTON&quot;,&quot;repository_id&quot;:181817346,&quot;client_id&quot;:&quot;1583147932.1539996391&quot;,&quot;originating_request_id&quot;:&quot;E5FC:61F3:AF1586:14B510E:5CB6AC3A&quot;,&quot;originating_url&quot;:&quot;https://github.com/jaskiratsingh98/redistricting-atlas-data/blob/master/shp/CT-current.prj&quot;,&quot;referrer&quot;:&quot;https://github.com/jaskiratsingh98/redistricting-atlas-data/tree/master/shp&quot;,&quot;user_id&quot;:45077319}}" data-hydro-click-hmac="dc7bb4efdd1859423f86c78e968f8dcae57e60e4766c3e20764f7fc9efaf9488" data-ga-click="Repository, click star button, action:blob#show; text:Star">        <svg class="octicon octicon-star v-align-text-bottom" viewBox="0 0 14 16" version="1.1" width="14" height="16" aria-hidden="true"><path fill-rule="evenodd" d="M14 6l-4.9-.64L7 1 4.9 5.36 0 6l3.6 3.26L2.67 14 7 11.67 11.33 14l-.93-4.74L14 6z"/></svg>
        Star
</button>        <a class="social-count js-social-count" href="/jaskiratsingh98/redistricting-atlas-data/stargazers"
           aria-label="0 users starred this repository">
          0
        </a>
</form>  </div>

  </li>

  <li>
        <span class="btn btn-sm btn-with-count disabled tooltipped tooltipped-sw" aria-label="Cannot fork because you own this repository and are not a member of any organizations.">
          <svg class="octicon octicon-repo-forked v-align-text-bottom" viewBox="0 0 10 16" version="1.1" width="10" height="16" aria-hidden="true"><path fill-rule="evenodd" d="M8 1a1.993 1.993 0 0 0-1 3.72V6L5 8 3 6V4.72A1.993 1.993 0 0 0 2 1a1.993 1.993 0 0 0-1 3.72V6.5l3 3v1.78A1.993 1.993 0 0 0 5 15a1.993 1.993 0 0 0 1-3.72V9.5l3-3V4.72A1.993 1.993 0 0 0 8 1zM2 4.2C1.34 4.2.8 3.65.8 3c0-.65.55-1.2 1.2-1.2.65 0 1.2.55 1.2 1.2 0 .65-.55 1.2-1.2 1.2zm3 10c-.66 0-1.2-.55-1.2-1.2 0-.65.55-1.2 1.2-1.2.65 0 1.2.55 1.2 1.2 0 .65-.55 1.2-1.2 1.2zm3-10c-.66 0-1.2-.55-1.2-1.2 0-.65.55-1.2 1.2-1.2.65 0 1.2.55 1.2 1.2 0 .65-.55 1.2-1.2 1.2z"/></svg>
          Fork
</span>
    <a href="/jaskiratsingh98/redistricting-atlas-data/network/members" class="social-count"
       aria-label="19 users forked this repository">
      19
    </a>
  </li>
</ul>

      <h1 class="public ">
  <svg class="octicon octicon-repo-forked" viewBox="0 0 10 16" version="1.1" width="10" height="16" aria-hidden="true"><path fill-rule="evenodd" d="M8 1a1.993 1.993 0 0 0-1 3.72V6L5 8 3 6V4.72A1.993 1.993 0 0 0 2 1a1.993 1.993 0 0 0-1 3.72V6.5l3 3v1.78A1.993 1.993 0 0 0 5 15a1.993 1.993 0 0 0 1-3.72V9.5l3-3V4.72A1.993 1.993 0 0 0 8 1zM2 4.2C1.34 4.2.8 3.65.8 3c0-.65.55-1.2 1.2-1.2.65 0 1.2.55 1.2 1.2 0 .65-.55 1.2-1.2 1.2zm3 10c-.66 0-1.2-.55-1.2-1.2 0-.65.55-1.2 1.2-1.2.65 0 1.2.55 1.2 1.2 0 .65-.55 1.2-1.2 1.2zm3-10c-.66 0-1.2-.55-1.2-1.2 0-.65.55-1.2 1.2-1.2.65 0 1.2.55 1.2 1.2 0 .65-.55 1.2-1.2 1.2z"/></svg>
  <span class="author" itemprop="author"><a class="url fn" rel="author" data-hovercard-type="user" data-hovercard-url="/hovercards?user_id=45077319" data-octo-click="hovercard-link-click" data-octo-dimensions="link_type:self" href="/jaskiratsingh98">jaskiratsingh98</a></span><!--
--><span class="path-divider">/</span><!--
--><strong itemprop="name"><a data-pjax="#js-repo-pjax-container" href="/jaskiratsingh98/redistricting-atlas-data">redistricting-atlas-data</a></strong>
  

    <span class="fork-flag">
      <span class="text">forked from <a href="/fivethirtyeight/redistricting-atlas-data">fivethirtyeight/redistricting-atlas-data</a></span>
    </span>
</h1>

    </div>
    
<nav class="reponav js-repo-nav js-sidenav-container-pjax container-lg p-responsive d-none d-lg-block"
     itemscope
     itemtype="http://schema.org/BreadcrumbList"
    aria-label="Repository"
     data-pjax="#js-repo-pjax-container">

  <span itemscope itemtype="http://schema.org/ListItem" itemprop="itemListElement">
    <a class="js-selected-navigation-item selected reponav-item" itemprop="url" data-hotkey="g c" aria-current="page" data-selected-links="repo_source repo_downloads repo_commits repo_releases repo_tags repo_branches repo_packages /jaskiratsingh98/redistricting-atlas-data" href="/jaskiratsingh98/redistricting-atlas-data">
      <svg class="octicon octicon-code" viewBox="0 0 14 16" version="1.1" width="14" height="16" aria-hidden="true"><path fill-rule="evenodd" d="M9.5 3L8 4.5 11.5 8 8 11.5 9.5 13 14 8 9.5 3zm-5 0L0 8l4.5 5L6 11.5 2.5 8 6 4.5 4.5 3z"/></svg>
      <span itemprop="name">Code</span>
      <meta itemprop="position" content="1">
</a>  </span>


  <span itemscope itemtype="http://schema.org/ListItem" itemprop="itemListElement">
    <a data-hotkey="g p" itemprop="url" class="js-selected-navigation-item reponav-item" data-selected-links="repo_pulls checks /jaskiratsingh98/redistricting-atlas-data/pulls" href="/jaskiratsingh98/redistricting-atlas-data/pulls">
      <svg class="octicon octicon-git-pull-request" viewBox="0 0 12 16" version="1.1" width="12" height="16" aria-hidden="true"><path fill-rule="evenodd" d="M11 11.28V5c-.03-.78-.34-1.47-.94-2.06C9.46 2.35 8.78 2.03 8 2H7V0L4 3l3 3V4h1c.27.02.48.11.69.31.21.2.3.42.31.69v6.28A1.993 1.993 0 0 0 10 15a1.993 1.993 0 0 0 1-3.72zm-1 2.92c-.66 0-1.2-.55-1.2-1.2 0-.65.55-1.2 1.2-1.2.65 0 1.2.55 1.2 1.2 0 .65-.55 1.2-1.2 1.2zM4 3c0-1.11-.89-2-2-2a1.993 1.993 0 0 0-1 3.72v6.56A1.993 1.993 0 0 0 2 15a1.993 1.993 0 0 0 1-3.72V4.72c.59-.34 1-.98 1-1.72zm-.8 10c0 .66-.55 1.2-1.2 1.2-.65 0-1.2-.55-1.2-1.2 0-.65.55-1.2 1.2-1.2.65 0 1.2.55 1.2 1.2zM2 4.2C1.34 4.2.8 3.65.8 3c0-.65.55-1.2 1.2-1.2.65 0 1.2.55 1.2 1.2 0 .65-.55 1.2-1.2 1.2z"/></svg>
      <span itemprop="name">Pull requests</span>
      <span class="Counter">0</span>
      <meta itemprop="position" content="3">
</a>  </span>



    <a data-hotkey="g b" class="js-selected-navigation-item reponav-item" data-selected-links="repo_projects new_repo_project repo_project /jaskiratsingh98/redistricting-atlas-data/projects" href="/jaskiratsingh98/redistricting-atlas-data/projects">
      <svg class="octicon octicon-project" viewBox="0 0 15 16" version="1.1" width="15" height="16" aria-hidden="true"><path fill-rule="evenodd" d="M10 12h3V2h-3v10zm-4-2h3V2H6v8zm-4 4h3V2H2v12zm-1 1h13V1H1v14zM14 0H1a1 1 0 0 0-1 1v14a1 1 0 0 0 1 1h13a1 1 0 0 0 1-1V1a1 1 0 0 0-1-1z"/></svg>
      Projects
      <span class="Counter" >0</span>
</a>

    <a class="js-selected-navigation-item reponav-item" data-hotkey="g w" data-selected-links="repo_wiki /jaskiratsingh98/redistricting-atlas-data/wiki" href="/jaskiratsingh98/redistricting-atlas-data/wiki">
      <svg class="octicon octicon-book" viewBox="0 0 16 16" version="1.1" width="16" height="16" aria-hidden="true"><path fill-rule="evenodd" d="M3 5h4v1H3V5zm0 3h4V7H3v1zm0 2h4V9H3v1zm11-5h-4v1h4V5zm0 2h-4v1h4V7zm0 2h-4v1h4V9zm2-6v9c0 .55-.45 1-1 1H9.5l-1 1-1-1H2c-.55 0-1-.45-1-1V3c0-.55.45-1 1-1h5.5l1 1 1-1H15c.55 0 1 .45 1 1zm-8 .5L7.5 3H2v9h6V3.5zm7-.5H9.5l-.5.5V12h6V3z"/></svg>
      Wiki
</a>
    <a class="js-selected-navigation-item reponav-item" data-selected-links="repo_graphs repo_contributors dependency_graph pulse people alerts /jaskiratsingh98/redistricting-atlas-data/pulse" href="/jaskiratsingh98/redistricting-atlas-data/pulse">
      <svg class="octicon octicon-graph" viewBox="0 0 16 16" version="1.1" width="16" height="16" aria-hidden="true"><path fill-rule="evenodd" d="M16 14v1H0V0h1v14h15zM5 13H3V8h2v5zm4 0H7V3h2v10zm4 0h-2V6h2v7z"/></svg>
      Insights
</a>
    <a class="js-selected-navigation-item reponav-item" data-selected-links="repo_settings repo_branch_settings hooks integration_installations repo_keys_settings issue_template_editor /jaskiratsingh98/redistricting-atlas-data/settings" href="/jaskiratsingh98/redistricting-atlas-data/settings">
      <svg class="octicon octicon-gear" viewBox="0 0 14 16" version="1.1" width="14" height="16" aria-hidden="true"><path fill-rule="evenodd" d="M14 8.77v-1.6l-1.94-.64-.45-1.09.88-1.84-1.13-1.13-1.81.91-1.09-.45-.69-1.92h-1.6l-.63 1.94-1.11.45-1.84-.88-1.13 1.13.91 1.81-.45 1.09L0 7.23v1.59l1.94.64.45 1.09-.88 1.84 1.13 1.13 1.81-.91 1.09.45.69 1.92h1.59l.63-1.94 1.11-.45 1.84.88 1.13-1.13-.92-1.81.47-1.09L14 8.75v.02zM7 11c-1.66 0-3-1.34-3-3s1.34-3 3-3 3 1.34 3 3-1.34 3-3 3z"/></svg>
      Settings
</a>
</nav>

  <div class="reponav-wrapper reponav-small d-lg-none">
  <nav class="reponav js-reponav text-center no-wrap"
       itemscope
       itemtype="http://schema.org/BreadcrumbList">

    <span itemscope itemtype="http://schema.org/ListItem" itemprop="itemListElement">
      <a class="js-selected-navigation-item selected reponav-item" itemprop="url" aria-current="page" data-selected-links="repo_source repo_downloads repo_commits repo_releases repo_tags repo_branches repo_packages /jaskiratsingh98/redistricting-atlas-data" href="/jaskiratsingh98/redistricting-atlas-data">
        <span itemprop="name">Code</span>
        <meta itemprop="position" content="1">
</a>    </span>


    <span itemscope itemtype="http://schema.org/ListItem" itemprop="itemListElement">
      <a itemprop="url" class="js-selected-navigation-item reponav-item" data-selected-links="repo_pulls checks /jaskiratsingh98/redistricting-atlas-data/pulls" href="/jaskiratsingh98/redistricting-atlas-data/pulls">
        <span itemprop="name">Pull requests</span>
        <span class="Counter">0</span>
        <meta itemprop="position" content="3">
</a>    </span>

      <span itemscope itemtype="http://schema.org/ListItem" itemprop="itemListElement">
        <a itemprop="url" class="js-selected-navigation-item reponav-item" data-selected-links="repo_projects new_repo_project repo_project /jaskiratsingh98/redistricting-atlas-data/projects" href="/jaskiratsingh98/redistricting-atlas-data/projects">
          <span itemprop="name">Projects</span>
          <span class="Counter">0</span>
          <meta itemprop="position" content="4">
</a>      </span>

      <span itemscope itemtype="http://schema.org/ListItem" itemprop="itemListElement">
        <a itemprop="url" class="js-selected-navigation-item reponav-item" data-selected-links="repo_wiki /jaskiratsingh98/redistricting-atlas-data/wiki" href="/jaskiratsingh98/redistricting-atlas-data/wiki">
          <span itemprop="name">Wiki</span>
          <meta itemprop="position" content="5">
</a>      </span>

      <a class="js-selected-navigation-item reponav-item" data-selected-links="pulse /jaskiratsingh98/redistricting-atlas-data/pulse" href="/jaskiratsingh98/redistricting-atlas-data/pulse">
        Pulse
</a>

  </nav>
</div>


  </div>
<div class="container-lg new-discussion-timeline experiment-repo-nav  p-responsive">
  <div class="repository-content ">

    
    



  
    <a class="d-none js-permalink-shortcut" data-hotkey="y" href="/jaskiratsingh98/redistricting-atlas-data/blob/a31658ef81d4436e1770477b3c74e1dd46edff4a/shp/CT-current.prj">Permalink</a>

    <!-- blob contrib key: blob_contributors:v21:c157d5590f56a754c3f58037613d3b77 -->

    

    <div class="d-flex flex-items-start mb-3 flex-column flex-md-row">
      <span class="d-flex flex-justify-between width-full width-md-auto">
        
<details class="details-reset details-overlay select-menu branch-select-menu ">
  <summary class="btn btn-sm select-menu-button css-truncate"
           data-hotkey="w"
           
           title="Switch branches or tags">
    <i>Branch:</i>
    <span class="css-truncate-target">master</span>
  </summary>

  <details-menu class="select-menu-modal position-absolute" style="z-index: 99;" src="/jaskiratsingh98/redistricting-atlas-data/ref-list/master/shp/CT-current.prj?source_action=show&amp;source_controller=blob" preload>
    <include-fragment class="select-menu-loading-overlay anim-pulse">
      <svg height="32" class="octicon octicon-octoface" viewBox="0 0 16 16" version="1.1" width="32" aria-hidden="true"><path fill-rule="evenodd" d="M14.7 5.34c.13-.32.55-1.59-.13-3.31 0 0-1.05-.33-3.44 1.3-1-.28-2.07-.32-3.13-.32s-2.13.04-3.13.32c-2.39-1.64-3.44-1.3-3.44-1.3-.68 1.72-.26 2.99-.13 3.31C.49 6.21 0 7.33 0 8.69 0 13.84 3.33 15 7.98 15S16 13.84 16 8.69c0-1.36-.49-2.48-1.3-3.35zM8 14.02c-3.3 0-5.98-.15-5.98-3.35 0-.76.38-1.48 1.02-2.07 1.07-.98 2.9-.46 4.96-.46 2.07 0 3.88-.52 4.96.46.65.59 1.02 1.3 1.02 2.07 0 3.19-2.68 3.35-5.98 3.35zM5.49 9.01c-.66 0-1.2.8-1.2 1.78s.54 1.79 1.2 1.79c.66 0 1.2-.8 1.2-1.79s-.54-1.78-1.2-1.78zm5.02 0c-.66 0-1.2.79-1.2 1.78s.54 1.79 1.2 1.79c.66 0 1.2-.8 1.2-1.79s-.53-1.78-1.2-1.78z"/></svg>
    </include-fragment>
  </details-menu>
</details>

        <div class="BtnGroup flex-shrink-0 d-md-none">
          <a href="/jaskiratsingh98/redistricting-atlas-data/find/master"
                class="js-pjax-capture-input btn btn-sm BtnGroup-item"
                data-pjax
                data-hotkey="t">
            Find file
          </a>
          <clipboard-copy value="shp/CT-current.prj" class="btn btn-sm BtnGroup-item">
            Copy path
          </clipboard-copy>
        </div>
      </span>
      <h2 id="blob-path" class="breadcrumb flex-auto min-width-0 text-normal flex-md-self-center ml-md-2 mr-md-3 my-2 my-md-0">
        <span class="js-repo-root text-bold"><span class="js-path-segment"><a data-pjax="true" href="/jaskiratsingh98/redistricting-atlas-data"><span>redistricting-atlas-data</span></a></span></span><span class="separator">/</span><span class="js-path-segment"><a data-pjax="true" href="/jaskiratsingh98/redistricting-atlas-data/tree/master/shp"><span>shp</span></a></span><span class="separator">/</span><strong class="final-path">CT-current.prj</strong>
      </h2>

      <div class="BtnGroup flex-shrink-0 d-none d-md-inline-block">
        <a href="/jaskiratsingh98/redistricting-atlas-data/find/master"
              class="js-pjax-capture-input btn btn-sm BtnGroup-item"
              data-pjax
              data-hotkey="t">
          Find file
        </a>
        <clipboard-copy value="shp/CT-current.prj" class="btn btn-sm BtnGroup-item">
          Copy path
        </clipboard-copy>
      </div>
    </div>



    
  <div class="Box Box--condensed d-flex flex-column flex-shrink-0">
      <div class="Box-body d-flex flex-justify-between bg-blue-light flex-column flex-md-row flex-items-start flex-md-items-center">
        <span class="pr-md-4 f6">
          <a rel="contributor" data-skip-pjax="true" data-hovercard-type="user" data-hovercard-url="/hovercards?user_id=88076" data-octo-click="hovercard-link-click" data-octo-dimensions="link_type:self" href="/bycoffe"><img class="avatar" src="https://avatars2.githubusercontent.com/u/88076?s=40&amp;v=4" width="20" height="20" alt="@bycoffe" /></a>
          <a class="text-bold link-gray-dark lh-default v-align-middle" rel="contributor" data-hovercard-type="user" data-hovercard-url="/hovercards?user_id=88076" data-octo-click="hovercard-link-click" data-octo-dimensions="link_type:self" href="/bycoffe">bycoffe</a>
            <span class="lh-default v-align-middle">
              <a data-pjax="true" title="Initial commit" class="link-gray" href="/jaskiratsingh98/redistricting-atlas-data/commit/0040c6877b945fec1205e06807c8580ef0fdfcd6">Initial commit</a>
            </span>
        </span>
        <span class="d-inline-block flex-shrink-0 v-align-bottom f6 mt-2 mt-md-0">
          <a class="pr-2 text-mono link-gray" href="/jaskiratsingh98/redistricting-atlas-data/commit/0040c6877b945fec1205e06807c8580ef0fdfcd6" data-pjax>0040c68</a>
          <relative-time datetime="2018-01-25T10:30:03Z">Jan 25, 2018</relative-time>
        </span>
      </div>

    <div class="Box-body d-flex flex-items-center flex-auto f6 border-bottom-0 flex-wrap" >
      <details class="details-reset details-overlay details-overlay-dark lh-default text-gray-dark float-left mr-2" id="blob_contributors_box">
        <summary class="btn-link" aria-haspopup="dialog">
          <span><strong>1</strong> contributor</span>
        </summary>
        <details-dialog
          class="Box Box--overlay d-flex flex-column anim-fade-in fast"
          aria-label="Users who have contributed to this file"
          >
          <div class="Box-header">
            <button class="Box-btn-octicon btn-octicon float-right" type="button" aria-label="Close dialog" data-close-dialog>
              <svg class="octicon octicon-x" viewBox="0 0 12 16" version="1.1" width="12" height="16" aria-hidden="true"><path fill-rule="evenodd" d="M7.48 8l3.75 3.75-1.48 1.48L6 9.48l-3.75 3.75-1.48-1.48L4.52 8 .77 4.25l1.48-1.48L6 6.52l3.75-3.75 1.48 1.48L7.48 8z"/></svg>
            </button>
            <h3 class="Box-title">
              Users who have contributed to this file
            </h3>
          </div>
              <ul class="list-style-none overflow-auto">
    <li class="Box-row">
      <a class="link-gray-dark no-underline" href="/bycoffe">
        <img class="avatar mr-1" alt="" src="https://avatars2.githubusercontent.com/u/88076?s=40&amp;v=4" width="20" height="20" />
        bycoffe
</a>    </li>
</ul>

        </details-dialog>
      </details>
    </div>
  </div>





    <div class="Box mt-3 position-relative">
      
<div class="Box-header py-2 d-flex flex-column flex-shrink-0 flex-md-row flex-md-items-center">

  <div class="text-mono f6 flex-auto pr-3 flex-order-2 flex-md-order-1 mt-2 mt-md-0">
      1 lines (1 sloc)
      <span class="file-info-divider"></span>
    297 Bytes
  </div>

  <div class="d-flex py-1 py-md-0 flex-auto flex-order-1 flex-md-order-2 flex-sm-grow-0 flex-justify-between">

    <div class="BtnGroup">
      <a id="raw-url" class="btn btn-sm BtnGroup-item" href="/jaskiratsingh98/redistricting-atlas-data/raw/master/shp/CT-current.prj">Raw</a>
        <a class="btn btn-sm js-update-url-with-hash BtnGroup-item" data-hotkey="b" href="/jaskiratsingh98/redistricting-atlas-data/blame/master/shp/CT-current.prj">Blame</a>
      <a rel="nofollow" class="btn btn-sm BtnGroup-item" href="/jaskiratsingh98/redistricting-atlas-data/commits/master/shp/CT-current.prj">History</a>
    </div>


    <div>

            <!-- '"` --><!-- </textarea></xmp> --></option></form><form class="inline-form js-update-url-with-hash" action="/jaskiratsingh98/redistricting-atlas-data/edit/master/shp/CT-current.prj" accept-charset="UTF-8" method="post"><input name="utf8" type="hidden" value="&#x2713;" /><input type="hidden" name="authenticity_token" value="ncq0IZDZQkVBC0RR93bok6XhTHPFpm3JtQ9spA9aGJEBBwg8LnBZ+36SDAoewgNv4msK6Ndf3ctsAVufrwOy3A==" />
              <button class="btn-octicon tooltipped tooltipped-nw" type="submit"
                aria-label="Edit this file" data-hotkey="e" data-disable-with>
                <svg class="octicon octicon-pencil" viewBox="0 0 14 16" version="1.1" width="14" height="16" aria-hidden="true"><path fill-rule="evenodd" d="M0 12v3h3l8-8-3-3-8 8zm3 2H1v-2h1v1h1v1zm10.3-9.3L12 6 9 3l1.3-1.3a.996.996 0 0 1 1.41 0l1.59 1.59c.39.39.39 1.02 0 1.41z"/></svg>
              </button>
</form>
          <!-- '"` --><!-- </textarea></xmp> --></option></form><form class="inline-form" action="/jaskiratsingh98/redistricting-atlas-data/delete/master/shp/CT-current.prj" accept-charset="UTF-8" method="post"><input name="utf8" type="hidden" value="&#x2713;" /><input type="hidden" name="authenticity_token" value="ioLCAlLPkkrbsBhwBTArd7RBh8C3A+ahBA172UkwBTNOgMK67jrlJOqpFUy5Nik4nfM38AH6dC+cYFd2u9yyIA==" />
            <button class="btn-octicon btn-octicon-danger tooltipped tooltipped-nw" type="submit"
              aria-label="Delete this file" data-disable-with>
              <svg class="octicon octicon-trashcan" viewBox="0 0 12 16" version="1.1" width="12" height="16" aria-hidden="true"><path fill-rule="evenodd" d="M11 2H9c0-.55-.45-1-1-1H5c-.55 0-1 .45-1 1H2c-.55 0-1 .45-1 1v1c0 .55.45 1 1 1v9c0 .55.45 1 1 1h7c.55 0 1-.45 1-1V5c.55 0 1-.45 1-1V3c0-.55-.45-1-1-1zm-1 12H3V5h1v8h1V5h1v8h1V5h1v8h1V5h1v9zm1-10H2V3h9v1z"/></svg>
            </button>
</form>    </div>
  </div>
</div>

      

  <div itemprop="text" class="Box-body p-0 blob-wrapper data type-text ">
      
<table class="highlight tab-size js-file-line-container" data-tab-size="8">
      <tr>
        <td id="L1" class="blob-num js-line-number" data-line-number="1"></td>
        <td id="LC1" class="blob-code blob-code-inner js-file-line">GEOGCS[&quot;NAD83&quot;,DATUM[&quot;North_American_Datum_1983&quot;,SPHEROID[&quot;GRS 1980&quot;,6378137,298.257222101,AUTHORITY[&quot;EPSG&quot;,&quot;7019&quot;]],TOWGS84[0,0,0,0,0,0,0],AUTHORITY[&quot;EPSG&quot;,&quot;6269&quot;]],PRIMEM[&quot;Greenwich&quot;,0,AUTHORITY[&quot;EPSG&quot;,&quot;8901&quot;]],UNIT[&quot;degree&quot;,0.0174532925199433,AUTHORITY[&quot;EPSG&quot;,&quot;9122&quot;]],AUTHORITY[&quot;EPSG&quot;,&quot;4269&quot;]]</td>
      </tr>
</table>

  <details class="details-reset details-overlay BlobToolbar position-absolute js-file-line-actions dropdown d-none" aria-hidden="true">
    <summary class="btn-octicon ml-0 px-2 p-0 bg-white border border-gray-dark rounded-1" aria-label="Inline file action toolbar">
      <svg class="octicon octicon-kebab-horizontal" viewBox="0 0 13 16" version="1.1" width="13" height="16" aria-hidden="true"><path fill-rule="evenodd" d="M1.5 9a1.5 1.5 0 1 0 0-3 1.5 1.5 0 0 0 0 3zm5 0a1.5 1.5 0 1 0 0-3 1.5 1.5 0 0 0 0 3zM13 7.5a1.5 1.5 0 1 1-3 0 1.5 1.5 0 0 1 3 0z"/></svg>
    </summary>
    <details-menu>
      <ul class="BlobToolbar-dropdown dropdown-menu dropdown-menu-se mt-2" style="width:185px">
        <li><clipboard-copy role="menuitem" class="dropdown-item" id="js-copy-lines" style="cursor:pointer;" data-original-text="Copy lines">Copy lines</clipboard-copy></li>
        <li><clipboard-copy role="menuitem" class="dropdown-item" id="js-copy-permalink" style="cursor:pointer;" data-original-text="Copy permalink">Copy permalink</clipboard-copy></li>
        <li><a class="dropdown-item js-update-url-with-hash" id="js-view-git-blame" role="menuitem" href="/jaskiratsingh98/redistricting-atlas-data/blame/a31658ef81d4436e1770477b3c74e1dd46edff4a/shp/CT-current.prj">View git blame</a></li>
      </ul>
    </details-menu>
  </details>

  </div>

    </div>

  

  <details class="details-reset details-overlay details-overlay-dark">
    <summary data-hotkey="l" aria-label="Jump to line"></summary>
    <details-dialog class="Box Box--overlay d-flex flex-column anim-fade-in fast linejump" aria-label="Jump to line">
      <!-- '"` --><!-- </textarea></xmp> --></option></form><form class="js-jump-to-line-form Box-body d-flex" action="" accept-charset="UTF-8" method="get"><input name="utf8" type="hidden" value="&#x2713;" />
        <input class="form-control flex-auto mr-3 linejump-input js-jump-to-line-field" type="text" placeholder="Jump to line&hellip;" aria-label="Jump to line" autofocus>
        <button type="submit" class="btn" data-close-dialog>Go</button>
</form>    </details-dialog>
  </details>



  </div>
  <div class="modal-backdrop js-touch-events"></div>
</div>

    </main>
  </div>
  

  </div>

        
<div class="footer container-lg width-full p-responsive" role="contentinfo">
  <div class="position-relative d-flex flex-row-reverse flex-lg-row flex-wrap flex-lg-nowrap flex-justify-center flex-lg-justify-between pt-6 pb-2 mt-6 f6 text-gray border-top border-gray-light ">
    <ul class="list-style-none d-flex flex-wrap col-12 col-lg-6 flex-justify-center flex-lg-justify-start mb-2 mb-lg-0">
      <li class="mr-3">&copy; 2019 <span title="0.26430s from unicorn-6f8dbc4d59-nx42x">GitHub</span>, Inc.</li>
        <li class="mr-3"><a data-ga-click="Footer, go to terms, text:terms" href="https://github.com/site/terms">Terms</a></li>
        <li class="mr-3"><a data-ga-click="Footer, go to privacy, text:privacy" href="https://github.com/site/privacy">Privacy</a></li>
        <li class="mr-3"><a data-ga-click="Footer, go to security, text:security" href="https://github.com/security">Security</a></li>
        <li class="mr-3"><a href="https://githubstatus.com/" data-ga-click="Footer, go to status, text:status">Status</a></li>
        <li><a data-ga-click="Footer, go to help, text:help" href="https://help.github.com">Help</a></li>
    </ul>

    <a aria-label="Homepage" title="GitHub" class="footer-octicon mx-lg-4" href="https://github.com">
      <svg height="24" class="octicon octicon-mark-github" viewBox="0 0 16 16" version="1.1" width="24" aria-hidden="true"><path fill-rule="evenodd" d="M8 0C3.58 0 0 3.58 0 8c0 3.54 2.29 6.53 5.47 7.59.4.07.55-.17.55-.38 0-.19-.01-.82-.01-1.49-2.01.37-2.53-.49-2.69-.94-.09-.23-.48-.94-.82-1.13-.28-.15-.68-.52-.01-.53.63-.01 1.08.58 1.23.82.72 1.21 1.87.87 2.33.66.07-.52.28-.87.51-1.07-1.78-.2-3.64-.89-3.64-3.95 0-.87.31-1.59.82-2.15-.08-.2-.36-1.02.08-2.12 0 0 .67-.21 2.2.82.64-.18 1.32-.27 2-.27.68 0 1.36.09 2 .27 1.53-1.04 2.2-.82 2.2-.82.44 1.1.16 1.92.08 2.12.51.56.82 1.27.82 2.15 0 3.07-1.87 3.75-3.65 3.95.29.25.54.73.54 1.48 0 1.07-.01 1.93-.01 2.2 0 .21.15.46.55.38A8.013 8.013 0 0 0 16 8c0-4.42-3.58-8-8-8z"/></svg>
</a>
   <ul class="list-style-none d-flex flex-wrap col-12 col-lg-6 flex-justify-center flex-lg-justify-end mb-2 mb-lg-0">
        <li class="mr-3"><a data-ga-click="Footer, go to contact, text:contact" href="https://github.com/contact">Contact GitHub</a></li>
        <li class="mr-3"><a href="https://github.com/pricing" data-ga-click="Footer, go to Pricing, text:Pricing">Pricing</a></li>
      <li class="mr-3"><a href="https://developer.github.com" data-ga-click="Footer, go to api, text:api">API</a></li>
      <li class="mr-3"><a href="https://training.github.com" data-ga-click="Footer, go to training, text:training">Training</a></li>
        <li class="mr-3"><a href="https://github.blog" data-ga-click="Footer, go to blog, text:blog">Blog</a></li>
        <li><a data-ga-click="Footer, go to about, text:about" href="https://github.com/about">About</a></li>

    </ul>
  </div>
  <div class="d-flex flex-justify-center pb-6">
    <span class="f6 text-gray-light"></span>
  </div>
</div>



  <div id="ajax-error-message" class="ajax-error-message flash flash-error">
    <svg class="octicon octicon-alert" viewBox="0 0 16 16" version="1.1" width="16" height="16" aria-hidden="true"><path fill-rule="evenodd" d="M8.893 1.5c-.183-.31-.52-.5-.887-.5s-.703.19-.886.5L.138 13.499a.98.98 0 0 0 0 1.001c.193.31.53.501.886.501h13.964c.367 0 .704-.19.877-.5a1.03 1.03 0 0 0 .01-1.002L8.893 1.5zm.133 11.497H6.987v-2.003h2.039v2.003zm0-3.004H6.987V5.987h2.039v4.006z"/></svg>
    <button type="button" class="flash-close js-ajax-error-dismiss" aria-label="Dismiss error">
      <svg class="octicon octicon-x" viewBox="0 0 12 16" version="1.1" width="12" height="16" aria-hidden="true"><path fill-rule="evenodd" d="M7.48 8l3.75 3.75-1.48 1.48L6 9.48l-3.75 3.75-1.48-1.48L4.52 8 .77 4.25l1.48-1.48L6 6.52l3.75-3.75 1.48 1.48L7.48 8z"/></svg>
    </button>
    You can’t perform that action at this time.
  </div>


    <script crossorigin="anonymous" integrity="sha512-5g98V2j8YTLsw7llCJHOsXoeKDJzBaS1EPqZe/YOBBiPXDE/+5S1WkRoX6AVs/hXTzyJGB3x95OKNDat4vpk0A==" type="application/javascript" src="https://github.githubassets.com/assets/compat-bootstrap-3ee7f90c.js"></script>
    <script crossorigin="anonymous" integrity="sha512-Wu2cX0UHG28sGkNNaAzz61xwoVm34Lytz6/ZvRbnXjLxRpaPRTFmm3txQC/0rXH96xJ9FqpenzDORAs8Oui4wA==" type="application/javascript" src="https://github.githubassets.com/assets/frameworks-3baed136.js"></script>
    
    <script crossorigin="anonymous" async="async" integrity="sha512-uWq3JiwXO2npDqwNiUFwzlawJWcyHOhdJywEtJaWcZdDwGkkWyeocBHC+d5YrpWOO8StbErFFRCkILX//pVoiQ==" type="application/javascript" src="https://github.githubassets.com/assets/github-bootstrap-a5235073.js"></script>
    
    
    
  <div class="js-stale-session-flash stale-session-flash flash flash-warn flash-banner" hidden
    >
    <svg class="octicon octicon-alert" viewBox="0 0 16 16" version="1.1" width="16" height="16" aria-hidden="true"><path fill-rule="evenodd" d="M8.893 1.5c-.183-.31-.52-.5-.887-.5s-.703.19-.886.5L.138 13.499a.98.98 0 0 0 0 1.001c.193.31.53.501.886.501h13.964c.367 0 .704-.19.877-.5a1.03 1.03 0 0 0 .01-1.002L8.893 1.5zm.133 11.497H6.987v-2.003h2.039v2.003zm0-3.004H6.987V5.987h2.039v4.006z"/></svg>
    <span class="signed-in-tab-flash">You signed in with another tab or window. <a href="">Reload</a> to refresh your session.</span>
    <span class="signed-out-tab-flash">You signed out in another tab or window. <a href="">Reload</a> to refresh your session.</span>
  </div>
  <template id="site-details-dialog">
  <details class="details-reset details-overlay details-overlay-dark lh-default text-gray-dark" open>
    <summary aria-haspopup="dialog" aria-label="Close dialog"></summary>
    <details-dialog class="Box Box--overlay d-flex flex-column anim-fade-in fast">
      <button class="Box-btn-octicon m-0 btn-octicon position-absolute right-0 top-0" type="button" aria-label="Close dialog" data-close-dialog>
        <svg class="octicon octicon-x" viewBox="0 0 12 16" version="1.1" width="12" height="16" aria-hidden="true"><path fill-rule="evenodd" d="M7.48 8l3.75 3.75-1.48 1.48L6 9.48l-3.75 3.75-1.48-1.48L4.52 8 .77 4.25l1.48-1.48L6 6.52l3.75-3.75 1.48 1.48L7.48 8z"/></svg>
      </button>
      <div class="octocat-spinner my-6 js-details-dialog-spinner"></div>
    </details-dialog>
  </details>
</template>

  <div class="Popover js-hovercard-content position-absolute" style="display: none; outline: none;" tabindex="0">
  <div class="Popover-message Popover-message--bottom-left Popover-message--large Box box-shadow-large" style="width:360px;">
  </div>
</div>

  <div aria-live="polite" class="js-global-screen-reader-notice sr-only"></div>

  </body>
</html>

